[
  {
    "id": "1",
    "name": "Sia Tomato",
    "imageUrl": "/assets/triviaImages/sia-tomato-01.jpeg",
    "qna": [
      {
        "question": "What does Sia has on her head?",
        "answers": ["A green bow", "A red bow", "A chicken", "A red hat"],
        "correctAnswer": "A green bow"
      }
    ]
  },
  {
    "id": "2",
    "name": "Waffles and Mochi",
    "imageUrl": "/assets/triviaImages/waffles-mochi-01.jpeg",
    "qna": [
      {
        "question": "Why is Mochi Pink?",
        "answers": [
          "Because he is a mochi ball with strawberry ice cream",
          "Because he got a hard suntan",
          "Because he is made of pink flowers"
        ],
        "correctAnswer": "Because he is a mochi ball with strawberry ice cream"
      }
    ]
  }
]
